{"failedCount":0,"prefixedPath":"src\/test\/resources\/features\/swapi_get.feature","packageQualifiedName":"src.test.resources.features.swapi_get","loopIndex":-1,"relativePath":"src\/test\/resources\/features\/swapi_get.feature","scenarioResults":[{"sectionIndex":0,"stepResults":[{"result":{"nanos":932100,"millis":0.9321,"status":"passed"},"step":{"background":true,"line":4,"prefix":"*","index":0,"text":"url urlBase"}},{"result":{"nanos":544600,"millis":0.5446,"status":"passed"},"step":{"line":7,"prefix":"Given","index":0,"text":"path '\/people\/'"}},{"result":{"nanos":1396495000,"millis":1396.495,"status":"passed"},"step":{"line":8,"prefix":"When","index":1,"text":"method get"},"stepLog":"21:56:26.389 request:\n1 > GET https:\/\/swapi.dev\/api\/people\n1 > Host: swapi.dev\n1 > Connection: Keep-Alive\n1 > User-Agent: Apache-HttpClient\/4.5.13 (Java\/17.0.10)\n1 > Accept-Encoding: gzip,deflate\n\n\n21:56:27.509 response time in milliseconds: 1117\n1 < 200\n1 < Server: nginx\/1.16.1\n1 < Date: Wed, 22 May 2024 02:56:26 GMT\n1 < Content-Type: application\/json\n1 < Transfer-Encoding: chunked\n1 < Connection: keep-alive\n1 < Vary: Accept, Cookie\n1 < X-Frame-Options: SAMEORIGIN\n1 < ETag: \"b493126da505af6fec015ec116fec193\"\n1 < Allow: GET, HEAD, OPTIONS\n1 < Strict-Transport-Security: max-age=15768000\n{\"count\":82,\"next\":\"https:\/\/swapi.dev\/api\/people\/?page=2\",\"previous\":null,\"results\":[{\"name\":\"Luke Skywalker\",\"height\":\"172\",\"mass\":\"77\",\"hair_color\":\"blond\",\"skin_color\":\"fair\",\"eye_color\":\"blue\",\"birth_year\":\"19BBY\",\"gender\":\"male\",\"homeworld\":\"https:\/\/swapi.dev\/api\/planets\/1\/\",\"films\":[\"https:\/\/swapi.dev\/api\/films\/1\/\",\"https:\/\/swapi.dev\/api\/films\/2\/\",\"https:\/\/swapi.dev\/api\/films\/3\/\",\"https:\/\/swapi.dev\/api\/films\/6\/\"],\"species\":[],\"vehicles\":[\"https:\/\/swapi.dev\/api\/vehicles\/14\/\",\"https:\/\/swapi.dev\/api\/vehicles\/30\/\"],\"starships\":[\"https:\/\/swapi.dev\/api\/starships\/12\/\",\"https:\/\/swapi.dev\/api\/starships\/22\/\"],\"created\":\"2014-12-09T13:50:51.644000Z\",\"edited\":\"2014-12-20T21:17:56.891000Z\",\"url\":\"https:\/\/swapi.dev\/api\/people\/1\/\"},{\"name\":\"C-3PO\",\"height\":\"167\",\"mass\":\"75\",\"hair_color\":\"n\/a\",\"skin_color\":\"gold\",\"eye_color\":\"yellow\",\"birth_year\":\"112BBY\",\"gender\":\"n\/a\",\"homeworld\":\"https:\/\/swapi.dev\/api\/planets\/1\/\",\"films\":[\"https:\/\/swapi.dev\/api\/films\/1\/\",\"https:\/\/swapi.dev\/api\/films\/2\/\",\"https:\/\/swapi.dev\/api\/films\/3\/\",\"https:\/\/swapi.dev\/api\/films\/4\/\",\"https:\/\/swapi.dev\/api\/films\/5\/\",\"https:\/\/swapi.dev\/api\/films\/6\/\"],\"species\":[\"https:\/\/swapi.dev\/api\/species\/2\/\"],\"vehicles\":[],\"starships\":[],\"created\":\"2014-12-10T15:10:51.357000Z\",\"edited\":\"2014-12-20T21:17:50.309000Z\",\"url\":\"https:\/\/swapi.dev\/api\/people\/2\/\"},{\"name\":\"R2-D2\",\"height\":\"96\",\"mass\":\"32\",\"hair_color\":\"n\/a\",\"skin_color\":\"white, blue\",\"eye_color\":\"red\",\"birth_year\":\"33BBY\",\"gender\":\"n\/a\",\"homeworld\":\"https:\/\/swapi.dev\/api\/planets\/8\/\",\"films\":[\"https:\/\/swapi.dev\/api\/films\/1\/\",\"https:\/\/swapi.dev\/api\/films\/2\/\",\"https:\/\/swapi.dev\/api\/films\/3\/\",\"https:\/\/swapi.dev\/api\/films\/4\/\",\"https:\/\/swapi.dev\/api\/films\/5\/\",\"https:\/\/swapi.dev\/api\/films\/6\/\"],\"species\":[\"https:\/\/swapi.dev\/api\/species\/2\/\"],\"vehicles\":[],\"starships\":[],\"created\":\"2014-12-10T15:11:50.376000Z\",\"edited\":\"2014-12-20T21:17:50.311000Z\",\"url\":\"https:\/\/swapi.dev\/api\/people\/3\/\"},{\"name\":\"Darth Vader\",\"height\":\"202\",\"mass\":\"136\",\"hair_color\":\"none\",\"skin_color\":\"white\",\"eye_color\":\"yellow\",\"birth_year\":\"41.9BBY\",\"gender\":\"male\",\"homeworld\":\"https:\/\/swapi.dev\/api\/planets\/1\/\",\"films\":[\"https:\/\/swapi.dev\/api\/films\/1\/\",\"https:\/\/swapi.dev\/api\/films\/2\/\",\"https:\/\/swapi.dev\/api\/films\/3\/\",\"https:\/\/swapi.dev\/api\/films\/6\/\"],\"species\":[],\"vehicles\":[],\"starships\":[\"https:\/\/swapi.dev\/api\/starships\/13\/\"],\"created\":\"2014-12-10T15:18:20.704000Z\",\"edited\":\"2014-12-20T21:17:50.313000Z\",\"url\":\"https:\/\/swapi.dev\/api\/people\/4\/\"},{\"name\":\"Leia Organa\",\"height\":\"150\",\"mass\":\"49\",\"hair_color\":\"brown\",\"skin_color\":\"light\",\"eye_color\":\"brown\",\"birth_year\":\"19BBY\",\"gender\":\"female\",\"homeworld\":\"https:\/\/swapi.dev\/api\/planets\/2\/\",\"films\":[\"https:\/\/swapi.dev\/api\/films\/1\/\",\"https:\/\/swapi.dev\/api\/films\/2\/\",\"https:\/\/swapi.dev\/api\/films\/3\/\",\"https:\/\/swapi.dev\/api\/films\/6\/\"],\"species\":[],\"vehicles\":[\"https:\/\/swapi.dev\/api\/vehicles\/30\/\"],\"starships\":[],\"created\":\"2014-12-10T15:20:09.791000Z\",\"edited\":\"2014-12-20T21:17:50.315000Z\",\"url\":\"https:\/\/swapi.dev\/api\/people\/5\/\"},{\"name\":\"Owen Lars\",\"height\":\"178\",\"mass\":\"120\",\"hair_color\":\"brown, grey\",\"skin_color\":\"light\",\"eye_color\":\"blue\",\"birth_year\":\"52BBY\",\"gender\":\"male\",\"homeworld\":\"https:\/\/swapi.dev\/api\/planets\/1\/\",\"films\":[\"https:\/\/swapi.dev\/api\/films\/1\/\",\"https:\/\/swapi.dev\/api\/films\/5\/\",\"https:\/\/swapi.dev\/api\/films\/6\/\"],\"species\":[],\"vehicles\":[],\"starships\":[],\"created\":\"2014-12-10T15:52:14.024000Z\",\"edited\":\"2014-12-20T21:17:50.317000Z\",\"url\":\"https:\/\/swapi.dev\/api\/people\/6\/\"},{\"name\":\"Beru Whitesun lars\",\"height\":\"165\",\"mass\":\"75\",\"hair_color\":\"brown\",\"skin_color\":\"light\",\"eye_color\":\"blue\",\"birth_year\":\"47BBY\",\"gender\":\"female\",\"homeworld\":\"https:\/\/swapi.dev\/api\/planets\/1\/\",\"films\":[\"https:\/\/swapi.dev\/api\/films\/1\/\",\"https:\/\/swapi.dev\/api\/films\/5\/\",\"https:\/\/swapi.dev\/api\/films\/6\/\"],\"species\":[],\"vehicles\":[],\"starships\":[],\"created\":\"2014-12-10T15:53:41.121000Z\",\"edited\":\"2014-12-20T21:17:50.319000Z\",\"url\":\"https:\/\/swapi.dev\/api\/people\/7\/\"},{\"name\":\"R5-D4\",\"height\":\"97\",\"mass\":\"32\",\"hair_color\":\"n\/a\",\"skin_color\":\"white, red\",\"eye_color\":\"red\",\"birth_year\":\"unknown\",\"gender\":\"n\/a\",\"homeworld\":\"https:\/\/swapi.dev\/api\/planets\/1\/\",\"films\":[\"https:\/\/swapi.dev\/api\/films\/1\/\"],\"species\":[\"https:\/\/swapi.dev\/api\/species\/2\/\"],\"vehicles\":[],\"starships\":[],\"created\":\"2014-12-10T15:57:50.959000Z\",\"edited\":\"2014-12-20T21:17:50.321000Z\",\"url\":\"https:\/\/swapi.dev\/api\/people\/8\/\"},{\"name\":\"Biggs Darklighter\",\"height\":\"183\",\"mass\":\"84\",\"hair_color\":\"black\",\"skin_color\":\"light\",\"eye_color\":\"brown\",\"birth_year\":\"24BBY\",\"gender\":\"male\",\"homeworld\":\"https:\/\/swapi.dev\/api\/planets\/1\/\",\"films\":[\"https:\/\/swapi.dev\/api\/films\/1\/\"],\"species\":[],\"vehicles\":[],\"starships\":[\"https:\/\/swapi.dev\/api\/starships\/12\/\"],\"created\":\"2014-12-10T15:59:50.509000Z\",\"edited\":\"2014-12-20T21:17:50.323000Z\",\"url\":\"https:\/\/swapi.dev\/api\/people\/9\/\"},{\"name\":\"Obi-Wan Kenobi\",\"height\":\"182\",\"mass\":\"77\",\"hair_color\":\"auburn, white\",\"skin_color\":\"fair\",\"eye_color\":\"blue-gray\",\"birth_year\":\"57BBY\",\"gender\":\"male\",\"homeworld\":\"https:\/\/swapi.dev\/api\/planets\/20\/\",\"films\":[\"https:\/\/swapi.dev\/api\/films\/1\/\",\"https:\/\/swapi.dev\/api\/films\/2\/\",\"https:\/\/swapi.dev\/api\/films\/3\/\",\"https:\/\/swapi.dev\/api\/films\/4\/\",\"https:\/\/swapi.dev\/api\/films\/5\/\",\"https:\/\/swapi.dev\/api\/films\/6\/\"],\"species\":[],\"vehicles\":[\"https:\/\/swapi.dev\/api\/vehicles\/38\/\"],\"starships\":[\"https:\/\/swapi.dev\/api\/starships\/48\/\",\"https:\/\/swapi.dev\/api\/starships\/59\/\",\"https:\/\/swapi.dev\/api\/starships\/64\/\",\"https:\/\/swapi.dev\/api\/starships\/65\/\",\"https:\/\/swapi.dev\/api\/starships\/74\/\"],\"created\":\"2014-12-10T16:16:29.192000Z\",\"edited\":\"2014-12-20T21:17:50.325000Z\",\"url\":\"https:\/\/swapi.dev\/api\/people\/10\/\"}]}\n\n"},{"result":{"nanos":17200,"millis":0.0172,"status":"passed"},"step":{"line":9,"prefix":"Then","index":2,"text":"status 200"}},{"result":{"nanos":24860900,"millis":24.8609,"status":"passed"},"step":{"line":10,"prefix":"And","index":3,"text":"match $.count == 82"}}],"executorName":"main","line":6,"name":"Make a query all swapi resources and validate the response","description":"","durationMillis":1422.8498,"startTime":1716346585941,"failed":false,"refId":"[1:6]","endTime":1716346587562,"exampleIndex":-1}],"callDepth":0,"name":"Star Wars Api","description":"","resultDate":"2024-05-21 09:56:27 p. m.","durationMillis":1422.8498,"passedCount":1}